{
"SYSTEM_TITLE" : "Welcome to DEPP System",
"TXT_FORGET_EMAIL": "忘記密碼?",
"TXT_LOGIN":	"登入",
"TXT_PASSWORD" :"密碼",
"TXT_USERNAME" :"用戶",
"TXT_HOMEPAGE": "首页",
"MSG_LOGIN_FAIL": "不正确的用户名和密码!!!",
"TXT_MAINTITLE" : "RFID环境监测系统",
"VIEW" : "图示",
"FLOOR_PLAN_VIEW" : "平面图",
"TABLE_VIEW" : "方格表示",
"CHART_VIEW" : "统计图",
"DIAGNOSTIC" : "测试",
"SENSOR_VIEW" : "传感器数据",
"ALERT" : "警报",
"ALERT_HISTORY" : "过往警报",
"ALERT_RULE_SETTING" : "警报设定",
"SYSTEM_CONFIGURATION" : "系统设定",
"SITE_CONFIGURATION" : "设置所在地",
"SITE_ID" : "所在地Id",
"SITE" : "所在地",
"TAG_CONFIGURATION" : "标签设定",
"NETWORK" : "网络状态",
"NETWORK_DIAGRAM" : "网络图",
"ADMINISTRATION" : "管理员设定",
"USERS" : "用户",
"WELCOME" : "欢迎",
"ITEMS" : "项目",
"SELECT_SITE" : "选择所在地",
"SELECT_TAG" : "选择标签",
"GROUP_ID" : "群组号",
"TAG_NAME" : "标签名称",
"LOGOUT" : "登出",
"PROFILE" : "用户设定",
"DATE" : "日期",
"SENSOR_ID" : "传感器Id",
"SENSOR_TYPE" : "传感器类型",
"TEMPERATURE" : "温度",
"HUMIDITY" : "湿度",
"VIBRATION" : "振动",
"LUX" : "光度",
"UV" : "紫外线",
"MEASURE_PERIOD" : "测量间隔 (秒)",
"TIME_DIFF" : "时间间隔 (Ms)",
"MAX_TIME_DIFF" : "最大时间间隔 (微秒)",
"DETAILS" : "进阶",
"SENSOR_DATA" : "传感器数据",
"DEVICE_ID" : "終端号",
"DEVICE_ADDR" : "終端地址",
"DESCRIPTION" : "说明",
"START_DATE" : "开始日期",
"END_DATE" : "完结日期",
"SENSOR_TYPE_IS_REQUIRED" : "输入传感器类型",
"RECEIVE_REALTIME_UPDATES_FROM_SERVER" : "接收实时数据",
"SEARCH" : "搜索",
"PARENT_ADDR" : "終端祖先地址",
"CORD_ID" : "协调机号",
"NOF_SENSORS" : "传感器数目",
"RESET_MAX_TIME_DIFF" : "重置最大时间间隔",
"SEND_TO_DEVICE" : "传送到終端",
"SELECT" : "选择",
"CONNECT" : "连接",
"CHART_X_AXIS_COVERAGE_MINS" : "统计图 x-轴覆盖范围(分钟)",
"ALERT_LEVEL" : "警报级别",
"ALERT_NAME" : "警报名称",
"USE_DATE_RANGE" : "使用日期间隔",
"SEND_EMAIL" : "发送电邮",
"REPEAT_ALERT_IN_SECS" : "重复警报(秒)",
"NEW_RECORD" : "新档案",
"EDIT_RECORD" : "更新档案",
"SAVE" : "保存",
"CANCEL" : "取消",
"CRITICAL_ALERT" : "严重",
"HIGH_ALERT" : "高",
"MEDIUM_ALERT" : "中",
"LOW_ALERT" : "低",
"SET" : "设定",
"EMAIL_RECEIPT_BY_COMMA" : "电子邮件收件人 (用 ; 隔开)",
"ALERT_LEVEL_IS_REQUIRED" : "输入警报级别",
"ALERT_NAME_IS_REQUIRED" : "输入警报名称",
"DEVICE_ADDR_IS_REQUIRED" : "输入終端地址",
"DEVICE_ID_IS_REQUIRED" : "输入終端Id",
"NAME_IS_REQUIRED" : "输入名称",
"GROUP_ID_IS_REQUIRED" : "输入群组Id",
"SENSOR_ID_IS_REQUIRED" : "输入传感器Id",
"SITE_IS_REQUIRED" : "输入所在地",
"MEASURE_PERIOD_IS_REQUIRED" : "输入测量间隔",
"DISCONNECT" : "断开",
"DELETE" : "刪除",
"NAME" : "名称",
"SITE_MAP" : "所在地地图",
"MAP" : "地图",
"SELECT" : "选择",
"REMOVE" : "删除",
"MAP_IS_REQUIRED" : "选择地图",
"DEVICE_IMAGE" : "終端图像",
"SITE_NAME" : "所在地名称",
"TAG_ID" : "标签Id",
"CONFIGURE_ALERT" : "警报设定",
"NETWORK_TABLE_VIEW" : "网络方格表示",
"DEVICE_TYPE" : "終端类别",
"ROUTER_ID" : "路由器Id",
"CHINAME" : "中文名称",
"ENGNAME" : "英文名称",
"EMAIL" : "电邮",
"DEPARTMENT" : "部门",
"PHONE" : "电话",
"NOTIFICATION" : "通报",
"TITLE" : "职位",
"ACTIVE" : "激活",
"ADD_SENSOR" : "加传感器",
"IMAGE" : "图像",
"SENSOR_CONFIGURATION" : "传感器设定",
"ROUTER_CONFIGURATION" : "路由器设定",
"SEND_TO_ROUTER" : "传送到路由器",
"HEART_BEAT_IN_SECS" : "心跳间隔 (秒)"

}